0,4.737436867076458,5.340475661845451,1.7071067811865475,3.618033988749895,4.131923142267177,6.397542485937368,9.858258593414813,14.697299478905869,13.632340263653997,9.858258593414813,13.150581316760658,13.707940216581962,18.478028450199876,14.239559108396115,19.049509756796393
4.737436867076458,0,1.0153882032022077,4.737436867076458,4.131923142267177,2.3660254037844384,3.460143218483576,10.36664806538351,11.948557158514987,9.736555498681225,7.056237449748592,11.52330175702983,12.084166500066633,16.868411915187053,10.36664806538351,16.338535866733714
5.340475661845451,1.0153882032022077,0,5.340475661845451,4.743734296383275,3.0077822185373186,4.089724735885168,10.903943276465977,12.484313483298443,10.31142209327368,7.600781059358212,12.057759704144292,12.617634293262178,17.39791576165636,9.802775637731994,16.868411915187053
1.7071067811865475,4.737436867076458,5.340475661845451,0,2.3660254037844384,2.8838834764831844,6.397542485937368,9.858258593414813,14.697299478905869,13.632340263653997,9.858258593414813,14.263846284534354,14.818404623873926,19.576941016011038,14.239559108396115,19.049509756796393
3.618033988749895,4.131923142267177,4.743734296383275,2.3660254037844384,0,3.515504800579495,6.98429276087974,8.144118304745739,13.01943680267544,11.948557158514987,8.144118304745739,12.59165006633519,13.150581316760658,17.92706097986845,12.565338955232288,17.39791576165636
4.131923142267177,2.3660254037844384,3.0077822185373186,2.8838834764831844,3.515504800579495,0,5.293010054098575,10.932453104217538,12.511684617428886,11.440521837032502,7.634587103827752,12.084166500066633,12.64330352493528,17.420614591379636,12.057759704144292,16.891390808713624
6.397542485937368,3.460143218483576,4.089724735885168,6.397542485937368,6.98429276087974,5.293010054098575,0,13.099106952968333,14.672268399622846,12.484313483298443,9.828592354790974,14.239559108396115,14.794694968835728,19.55563103753261,8.75,19.027968552019587
9.858258593414813,10.36664806538351,10.903943276465977,9.858258593414813,8.144118304745739,10.932453104217538,13.099106952968333,0,10.276583800443987,11.354049621773916,8.686342195404006,13.125,12.565338955232288,14.11394181566097,11.976423537605237,14.697299478905869
14.697299478905869,11.948557158514987,12.484313483298443,14.697299478905869,13.01943680267544,12.511684617428886,14.672268399622846,10.276583800443987,0,4.131923142267177,9.129800601300662,14.697299478905869,15.253469547164993,7.020690632574555,13.553959590644373,6.441570324333849
13.632340263653997,9.736555498681225,10.31142209327368,13.632340263653997,11.948557158514987,11.440521837032502,12.484313483298443,11.354049621773916,4.131923142267177,0,10.213913650100261,15.76039266500314,16.31503239718152,8.110512340840641,13.5,7.536025715930563
9.858258593414813,7.056237449748592,7.600781059358212,9.858258593414813,8.144118304745739,7.634587103827752,9.828592354790974,8.686342195404006,9.129800601300662,10.213913650100261,0,7.634587103827752,8.209349291397167,11.920286436967151,6.3578475614000265,11.38331489666492
13.150581316760658,11.52330175702983,12.057759704144292,14.263846284534354,12.59165006633519,12.084166500066633,14.239559108396115,13.125,14.697299478905869,15.76039266500314,7.634587103827752,0,1,8.58607219255619,12.003902442735175,9.195582495781316
13.707940216581962,12.084166500066633,12.617634293262178,14.818404623873926,13.150581316760658,12.64330352493528,14.794694968835728,12.565338955232288,15.253469547164993,16.31503239718152,8.209349291397167,1,0,9.16301683695626,12.565338955232288,9.767766952966369
18.478028450199876,16.868411915187053,17.39791576165636,19.576941016011038,17.92706097986845,17.420614591379636,19.55563103753261,14.11394181566097,7.020690632574555,8.110512340840641,11.920286436967151,8.58607219255619,9.16301683695626,0,17.351860965278348,2.375
14.239559108396115,10.36664806538351,9.802775637731994,14.239559108396115,12.565338955232288,12.057759704144292,8.75,11.976423537605237,13.553959590644373,13.5,6.3578475614000265,12.003902442735175,12.565338955232288,17.351860965278348,0,15.711475751619266
19.049509756796393,16.338535866733714,16.868411915187053,19.049509756796393,17.39791576165636,16.891390808713624,19.027968552019587,14.697299478905869,6.441570324333849,7.536025715930563,11.38331489666492,9.195582495781316,9.767766952966369,2.375,15.711475751619266,0
