0,0,0,0,0,0,0,0.875,0,0,0,0,0.875,0.875
0,0,0,0,0,0,0,0.875,0,0,0,0,0.875,0.875
0,0,0,0,0,0,0,0.875,0,0,0,0,0.875,0.875
0,0,0,0,0,0,0,0.875,0,0,0,0,0.875,0.875
0,0,0,0,0,0,0,0.875,0,0,0,0,0.875,0.875
0,0,0,0,0,0,0,0.875,0,0,0,0,0.875,0.875
0,0,0,0,0,0,0,0.875,0,0,0,0,0.875,0.875
0.875,0.875,0.875,0.875,0.875,0.875,0.875,0,0.875,0.875,0.875,0.875,0,0
0,0,0,0,0,0,0,0.875,0,0,0,0,0.875,0.875
0,0,0,0,0,0,0,0.875,0,0,0,0,0.875,0.875
0,0,0,0,0,0,0,0.875,0,0,0,0,0.875,0.875
0,0,0,0,0,0,0,0.875,0,0,0,0,0.875,0.875
0.875,0.875,0.875,0.875,0.875,0.875,0.875,0,0.875,0.875,0.875,0.875,0,0
0.875,0.875,0.875,0.875,0.875,0.875,0.875,0,0.875,0.875,0.875,0.875,0,0
