0,0,0,0,0,0,0,3.515504800579495,1.7071067811865475,1,3.460143218483576,2.300390529679106,2.300390529679106,2.300390529679106,1,1
0,0,0,0,0,0,0,3.515504800579495,1.7071067811865475,1,3.460143218483576,2.300390529679106,2.300390529679106,2.300390529679106,1,1
0,0,0,0,0,0,0,3.515504800579495,1.7071067811865475,1,3.460143218483576,2.300390529679106,2.300390529679106,2.300390529679106,1,1
0,0,0,0,0,0,0,3.515504800579495,1.7071067811865475,1,3.460143218483576,2.300390529679106,2.300390529679106,2.300390529679106,1,1
0,0,0,0,0,0,0,3.515504800579495,1.7071067811865475,1,3.460143218483576,2.300390529679106,2.300390529679106,2.300390529679106,1,1
0,0,0,0,0,0,0,3.515504800579495,1.7071067811865475,1,3.460143218483576,2.300390529679106,2.300390529679106,2.300390529679106,1,1
0,0,0,0,0,0,0,3.515504800579495,1.7071067811865475,1,3.460143218483576,2.300390529679106,2.300390529679106,2.300390529679106,1,1
3.515504800579495,3.515504800579495,3.515504800579495,3.515504800579495,3.515504800579495,3.515504800579495,3.515504800579495,0,2.2288689868556624,2.8838834764831844,2.9437293044088437,4.082531754730549,4.082531754730549,4.082531754730549,2.8838834764831844,2.8838834764831844
1.7071067811865475,1.7071067811865475,1.7071067811865475,1.7071067811865475,1.7071067811865475,1.7071067811865475,1.7071067811865475,2.2288689868556624,0,1,3.460143218483576,2.300390529679106,2.300390529679106,2.300390529679106,1,1
1,1,1,1,1,1,1,2.8838834764831844,1,0,2.81967981553775,1.625,1.625,1.625,0,0
3.460143218483576,3.460143218483576,3.460143218483576,3.460143218483576,3.460143218483576,3.460143218483576,3.460143218483576,2.9437293044088437,3.460143218483576,2.81967981553775,0,4.030776406404415,4.030776406404415,4.030776406404415,2.81967981553775,2.81967981553775
2.300390529679106,2.300390529679106,2.300390529679106,2.300390529679106,2.300390529679106,2.300390529679106,2.300390529679106,4.082531754730549,2.300390529679106,1.625,4.030776406404415,0,0,0,1.625,1.625
2.300390529679106,2.300390529679106,2.300390529679106,2.300390529679106,2.300390529679106,2.300390529679106,2.300390529679106,4.082531754730549,2.300390529679106,1.625,4.030776406404415,0,0,0,1.625,1.625
2.300390529679106,2.300390529679106,2.300390529679106,2.300390529679106,2.300390529679106,2.300390529679106,2.300390529679106,4.082531754730549,2.300390529679106,1.625,4.030776406404415,0,0,0,1.625,1.625
1,1,1,1,1,1,1,2.8838834764831844,1,0,2.81967981553775,1.625,1.625,1.625,0,0
1,1,1,1,1,1,1,2.8838834764831844,1,0,2.81967981553775,1.625,1.625,1.625,0,0
