0,14.120966649604368,33.08032445175068,21.88860198872224,40.00078091120982,43.4375,27.961166867381916,49.43931794687047,30.532124510548034,30.539283694244343,33.13263512416904,89.7567539386344,101.74167870900558,110.30421283400986,111.99295219280458,94.0430631715755,112.00654820699505,93.15052073290268,78.598811935401,94.87987771197305,92.30934267202939,70.03703938435082,70.04941391937895,66.62393568818739,75.17665704253471,70.04530330878819,70.04117851307014,71.755845139311,71.73940636453652,62.33371623433732,64.89605300924521,61.47374930478288,70.04117851307014,67.4709371246997,78.60499003980111,61.47812067173685,70.90875710959646,93.17170058686288,83.76624465810882,103.4421663392272,97.45862299782446,94.88344000592726,62.33371623433732,95.72528406156691,87.19164078649987,82.03816730279883,70.02871752341262,96.57118789740866,94.85467939011413,64.90461032387554,62.34236596587958,62.34666636385654,61.47812067173685,57.195231139988266,55.47449115864208,67.48763157165848,54.636853255964205,49.45832472448115,44.299424167587915,46.02283413283046,47.73575795710712,48.577161066559654
14.120966649604368,0,21.018465843842648,21.89626329773553,31.409513742934607,33.1351646544245,19.341896603823386,37.41086802124367,16.7333630944789,18.479732085890497,33.125,77.77058057595731,89.7608935483718,98.32697231928303,100.01509716980848,82.0592817687572,100.02943389144095,81.16392246597644,66.60461032387555,82.89524370293779,80.32334451347621,58.037499999999994,58.05099386919274,54.62318160159406,63.1806110073761,58.046514363791005,58.042016483392075,59.75799650270206,59.74008313903115,50.329031705050916,52.89260790808434,49.46804039703736,58.042016483392075,55.46990069632653,66.61128969254015,49.47286362727394,58.91116492925217,81.18652875988063,71.77723011289652,91.46141011455035,85.47582521472476,82.89903810567665,50.329031705050916,83.7403487900564,75.20442965127583,70.04706672746342,58.02841028834113,84.58598211496117,82.86836508939658,52.90200701043292,50.338553681809465,50.343282080743265,49.47286362727394,45.18647098284744,43.46339244339988,55.488146359641014,42.62716106655965,37.43899521933472,32.27158383625775,33.998528137423854,35.713314832491605,36.55348550075557
33.08032445175068,21.018465843842648,0,21.902758569457344,29.66852130744697,31.395495128834863,29.65093691479378,18.48529028797865,21.895174395028196,28.78293076071345,33.11298062707545,76.04486445045234,88.03691576024819,96.60412339201368,98.29205333949528,80.33434078421577,98.30662495001332,77.72780291578087,64.87624930632609,81.1700270666407,78.59768535697106,56.30734041349038,56.32121426428143,52.89260790808434,61.45163231161763,56.31660969899959,56.311985169387974,58.02841028834113,58.00999705188269,48.597105185023125,51.16111015720345,47.73575795710712,56.311985169387974,53.739230484541324,64.88309586973035,47.74073836102172,57.181665382639196,79.46113787906002,70.05058579451865,89.73744158750952,83.75120136796731,81.17389658135971,48.597105185023125,80.30499003980111,71.76802863266838,68.31973554703616,56.29798914593616,82.86058022354787,81.14260311443356,51.17079931916121,48.60692911865732,48.61180531724241,47.74073836102172,43.45311987703541,41.72921337700229,53.75800519847494,40.89348092190568,35.70183625187004,30.53122499959999,32.25951374293461,33.975,34.814708536840016
21.88860198872224,21.89626329773553,21.902758569457344,0,37.39437476868982,42.5429410674843,28.792462120245876,34.83852549156242,31.383920436013756,31.378520230951,42.57085218683565,87.16677873995596,99.1511156269202,107.7153817761935,109.40382039812351,91.45104126509888,109.41777893430857,88.85066088970184,76.00175652692215,92.28744158750953,89.7162446581088,67.43743131660773,67.45033962376334,64.02374930478288,72.57871752341262,67.4460530092452,67.44543932619759,69.15704364654061,69.14359630114826,59.73555861195976,62.29843638869076,58.87121426428143,67.44543932619759,64.8706164598113,76.00817527701902,58.875799121583576,68.31007812236935,92.29164078649988,82.88488812742588,102.57055226936568,94.86707946001687,92.29111660566858,61.45227038425243,91.42635543878706,84.60551713891469,81.16058022354787,67.42874377074693,93.98164606784235,92.26464111072185,65.73866698380166,61.45609109028145,61.460531967122066,62.31179753102801,58.02841028834113,56.30734041349038,68.32213747060658,53.748659859058215,50.290028408683305,45.12996975757279,46.853857300648265,48.56703477186707,49.408269925438546
40.00078091120982,31.409513742934607,29.66852130744697,37.39437476868982,0,5.409232921921324,27.930047087522443,30.51209005373381,21.931221329671935,21.910255632312214,12.416901828203384,55.46066017177982,67.46732868122051,74.33009146001424,77.72665704253471,54.60999705188269,77.7465577603946,58.8566752102704,44.26855865354369,55.442607908084334,56.29395581803063,30.51943566982562,30.538392351561075,27.09906191332893,35.679250414531104,30.532124510548034,30.53122499959999,32.24814237451723,32.228520230951,22.79044822398207,25.360523574556115,21.91766851805368,30.53122499959999,27.944353746547968,39.12061400746829,21.925,31.402535045963724,60.59137241581414,51.17079931916121,65.74727939055838,63.17249721603218,55.44731800328267,24.516436494045355,61.43814635964102,49.46388793759468,49.44428051876721,30.506534037568702,57.13516303063817,55.41319420645797,28.82126114254512,24.522301010659685,24.529083328570884,25.38100957586067,21.079153885360306,19.345174395028195,31.419870416590328,16.780847644047277,13.277671772980137,8.053887360535088,9.806207189772365,11.533153702252191,12.365362761724658
43.4375,33.1351646544245,31.395495128834863,42.5429410674843,5.409232921921324,0,29.660242559976748,27.06447095812216,20.197350368811204,20.18196123298823,14.130330085889911,52.026979795322184,64.04051797443091,70.90467838031567,74.30117130335351,51.18039737480255,74.32148731061767,55.42286362727394,40.834236959191365,52.008324724481156,52.86388793759468,27.078118293960532,27.098122650372247,23.656554138053128,32.24106336661484,27.091514497498192,27.084846922834952,28.808390565605876,28.781970798597868,19.3375,21.90918984367176,18.469601686569685,27.084846922834952,24.501560760020116,35.68432232979826,18.477495019900555,27.963012123101592,55.446646430271464,46.02283413283046,64.02749722837797,59.74458896394948,52.01734949746879,22.79044822398207,58.005343545960265,47.74569385355138,47.72572088734432,27.06447095812216,53.70062480480947,51.9778803607804,25.374245296843547,19.34626329773553,19.360255632312214,21.931221329671935,17.62524995001999,15.888164517800929,27.975806032459143,11.592131211055035,9.806207189772365,4.554651440173848,6.321231060122938,8.053887360535088,8.882426463519458
27.961166867381916,19.341896603823386,29.65093691479378,28.792462120245876,27.930047087522443,29.660242559976748,0,32.23122499959999,20.191896603823388,16.758147802758504,36.54935637396795,74.32608370432038,86.31624465810881,94.88445612064811,96.5722130847649,76.89937484367182,96.58699315066802,77.71918261552567,63.151632311617625,76.02436207879859,76.87551009787761,52.86458119438515,52.87903170505092,49.44921844458556,58.01066017177982,52.874237521281074,52.873550804796714,54.586520622081395,54.57148788539072,45.156066158798644,47.720663432915856,44.289747306460626,52.873550804796714,50.29569385355138,61.4433034802835,44.294970237626565,53.73990684678965,76.03237575438662,70.0417686436553,88.02423326872572,82.0299536124407,77.73863584236852,46.875,78.58636311413758,71.76050092936767,64.89359630114826,52.85483207552307,77.71802863266838,74.28881506131104,47.74073836102172,43.44422587340107,46.8843303561305,47.73575795710712,41.73449518457828,41.72390137460662,50.32492377765373,39.16395432052155,35.69603856295089,30.524899186991444,32.25341069821107,33.969012362544056,34.808644699481796
49.43931794687047,37.41086802124367,18.48529028797865,34.83852549156242,30.51209005373381,27.06447095812216,32.23122499959999,0,24.48840849065072,29.641514497498193,33.9516584372412,73.45875710959646,85.4533610397737,94.02221308476489,95.70985982733515,76.0357942789963,95.72477270848675,75.14117851307014,62.28620612684701,76.87091154470747,76.01166208160527,51.99781010217376,52.0125,48.58218506402816,57.144629120788814,52.00762716319083,52.00273064678407,53.720110288155155,53.70062480480947,44.28374246984916,46.84868329805051,43.42161542955834,52.00273064678407,49.42859912630249,60.577758089739994,43.42694053207312,52.873550804796714,76.87551009787761,67.46310468144532,85.44089358585438,81.16670093155408,76.87493622282958,44.28374246984916,77.71918261552567,67.46672618895781,65.73123273467488,51.98789549042396,78.56108164464663,76.84235848216883,46.85900338894083,44.29422587340107,44.299424167587915,43.42694053207312,39.13661928131527,37.41086802124367,49.44851452167707,36.57624910841609,31.376711819145296,26.198547600382394,27.930047087522443,29.647182206693923,30.485803132638072
30.532124510548034,16.7333630944789,21.895174395028196,31.383920436013756,21.931221329671935,20.197350368811204,20.191896603823388,24.48840849065072,0,15.863748614188983,27.092462120245873,64.90947186253052,76.90442965127582,85.47582521472476,87.16303560500086,67.48407400528852,87.17847421879387,68.30217186218029,53.72697979532218,68.31853273381621,67.45886528552718,43.432989147846854,43.44868329805051,40.0162593792153,48.582900681656085,43.44348092190568,43.44273538174824,45.156801311662974,45.14049521529883,35.71899726696924,38.285031779090446,34.85101042884327,43.44273538174824,40.86241437954473,52.01804039703737,34.85677447440969,44.31046863561493,70.03763157165848,60.623123434890395,76.89486445045233,72.61629560551701,68.32273718283338,35.71412889663522,70.88110118110177,60.623123434890395,57.174491158642084,43.42237804071866,70.01189500386222,68.29236596587958,40.01009958246337,37.44451453314074,37.449999999999996,36.57624910841609,32.28347915390848,30.556031947257676,42.601643315533714,29.7224392074798,24.51545440106271,19.329732085890498,21.0645016930001,22.783282518435822,23.620820393249936
30.539283694244343,18.479732085890497,28.78293076071345,31.378520230951,21.910255632312214,20.18196123298823,16.758147802758504,29.641514497498193,15.863748614188983,0,28.80931712742437,68.32273718283338,80.32334451347621,87.18111795119741,90.57794484072193,69.18999737394668,90.59634923032621,71.71913429510899,57.15,68.31370904868871,70.87573115549432,45.14049521529883,45.156066158798644,41.72390137460662,50.290028408683305,45.15090417498294,45.145714015968885,46.86412200991368,46.84348092190568,37.42222775122097,39.98820394617453,36.559232942804215,45.145714015968885,42.570088310978896,53.72492377765373,36.564942194600306,46.01776159254229,68.31853273381621,62.32562482648527,78.59712168612369,76.03237575438662,70.02871752341262,37.42222775122097,72.58703938435082,62.329366525978166,57.17318160159407,45.12996975757279,70.00339173744223,66.57249721603219,36.570614007468286,33.99437476868982,37.43899521933472,36.564942194600306,30.556031947257676,30.543725393319377,39.15932667397366,29.710381854436534,24.501560760020116,19.313901457890434,21.049519052838328,22.76872079375476,23.605982088170094
33.13263512416904,33.125,33.11298062707545,42.57085218683565,12.416901828203384,14.130330085889911,36.54935637396795,33.9516584372412,27.092462120245873,28.80931712742437,0,64.04113430410271,76.03977064411124,84.61624465810881,86.30012018675198,64.90886528552718,86.31464111072185,67.43247516529061,52.85902180353053,65.74298129905961,64.87936652597817,40.85078091120982,40.867026444547804,37.433441424204226,46.00238188244002,40.86164343358574,40.856228448019586,42.575422200943976,42.55389780948955,33.1292504145311,35.69603856295089,32.26557111890993,40.856228448019586,38.27945295496689,49.4386069744848,32.27158383625775,41.72921337700229,67.45886528552718,58.042660171325004,74.31745123105608,71.75234146564111,65.74727939055838,33.1292504145311,70.01189500386222,58.046514363791005,56.30734041349038,40.83978578882785,67.43247516529061,65.71242977306434,35.707594746952196,33.14103730595021,33.14686923429771,32.27158383625775,27.975806032459143,26.246240577829965,38.301561146012844,25.413933079529876,20.197350368811204,15.001135192126215,16.740550590550885,18.46160649113625,19.297651654394095
89.7567539386344,77.77058057595731,76.04486445045234,87.16677873995596,55.46066017177982,52.026979795322184,74.32608370432038,73.45875710959646,64.90947186253052,68.32273718283338,64.04113430410271,0,29.671261142545116,34.85841423566947,41.709326673973656,51.196646430271464,57.178410288341134,40.02314002188184,54.597318003282666,55.46396957193333,42.5875,61.452908087738955,63.18619430556573,59.759264959331176,68.31491684252568,66.60765117803248,66.60704364654062,70.03407400528852,70.0209371246997,60.61810386369067,63.1806110073761,59.75418238982516,64.90095069399172,62.32624930632608,71.74471492415555,59.75481898969922,65.76189500386222,93.16707946001686,83.76142813375343,108.57828025083202,95.74205333949529,96.59306317157551,70.90526190099912,95.73191443295161,92.32016194298339,83.74741329190047,75.16918261552567,94.85104126509889,93.1342835155993,73.47033550714548,67.47573115549432,69.20234146564111,71.7639810542179,65.76431310221949,65.76431310221949,76.0516239451209,61.49175030107288,59.75354542271716,54.599999999999994,56.32121426428143,58.03296468086452,58.875145339012356
101.74167870900558,89.7608935483718,88.03691576024819,99.1511156269202,67.46732868122051,64.04051797443091,86.31624465810881,85.4533610397737,76.90442965127582,80.32334451347621,76.03977064411124,29.671261142545116,0,26.237711833983976,33.1138450405329,49.475609574838295,55.443282080743266,36.5786530885395,52.87903170505092,57.189437928475044,42.58824970023976,75.1732129822725,75.18522518190005,71.76050092936767,80.31169528809455,78.60499003980111,78.60555017820873,82.02940415819239,82.01836508939658,72.61975919754678,75.18123413695365,71.755845139311,76.89993749843741,74.32608370432038,83.73925850782534,71.75642809566091,77.75890577486959,105.15140018602727,95.74910685796331,120.5565888185388,107.72112839344497,108.57494703294728,82.89903810567665,105.99994611968859,102.59557514505472,95.73496389844645,87.16196417634019,106.84021482772536,105.1245064934917,83.75012018675199,79.47610246453802,81.20066088970184,83.76142813375343,77.76559027730147,77.76559027730147,88.04634923032621,73.49486445045234,71.75991993536762,66.61128969254015,68.33050571790228,70.04117851307014,70.88407400528853
110.30421283400986,98.32697231928303,96.60412339201368,107.7153817761935,74.33009146001424,70.90467838031567,94.88445612064811,94.02221308476489,85.47582521472476,87.18111795119741,84.61624465810881,34.85841423566947,26.237711833983976,0,34.82329369000376,42.58449518457828,57.15734041349038,43.44571401596889,61.46116492925218,57.15734041349038,44.300904174982946,82.03324539742015,82.0447007376224,78.62113384425086,87.16997869300985,85.46357099161027,85.46410616009513,88.88691576024819,88.87635543878706,79.47995361244071,82.04089358585439,78.61670093155408,83.75874462749614,81.18598211496116,90.59634923032621,78.61725589365368,84.61731260526876,105.15188455119545,95.74960932048911,118.84616460960662,107.72160626527615,106.86394159719573,89.75571706118939,114.5621383865242,102.59216633922719,100.86857102395334,92.3015615968205,113.68776258186581,105.13189123190276,90.6108935483718,84.62104362153563,88.05727208031404,90.61759368966078,82.91089187197113,84.6237021946042,91.47272539132923,80.35390039880353,78.6205805759573,73.47436207879859,75.19260311443357,76.90274698163675,77.74599357943771
111.99295219280458,100.01509716980848,98.29205333949528,109.40382039812351,77.72665704253471,74.30117130335351,96.5722130847649,95.70985982733515,87.16303560500086,90.57794484072193,86.30012018675198,41.709326673973656,33.1138450405329,34.82329369000376,0,54.602007010432914,33.13094449273101,41.709326673973656,46.01339244339988,45.158269925438546,37.435031779090444,85.4299536124407,87.15874462749613,83.7354352375752,92.28375644328341,90.57741525153209,90.57794484072193,92.28375644328341,93.99006762889042,82.87665333979119,85.4376213535042,82.01336603959423,87.15551713891469,84.58269735323653,95.70985982733515,82.01392246597645,88.01410616009514,113.68728990112889,104.28630385016541,129.08745078663875,116.25654820699505,117.10748134316813,93.15260165976535,116.25187382958757,112.84389382152816,105.98532444067534,97.4150206042401,118.8,115.37351620282912,94.00364092358349,89.73058962494075,91.45416025639508,94.01450540489951,86.3076696830622,88.02051126462443,96.58191443295162,83.75066088970185,82.01725589365368,76.87091154470747,78.58920337313937,80.29937484367183,81.14260311443356
94.0430631715755,82.0592817687572,80.33434078421577,91.45104126509888,54.60999705188269,51.18039737480255,76.89937484367182,76.0357942789963,67.48407400528852,69.18999737394668,64.90886528552718,51.196646430271464,49.475609574838295,42.58449518457828,54.602007010432914,0,46.00311987703541,34.00266127506765,45.167034771867066,46.006066158798646,46.870663432915855,70.90117130335352,70.91340172655227,67.48822346383162,76.04033765564058,74.33351631525488,74.33408620039282,72.61975919754678,72.60817527701901,66.62871752341263,69.19058808997906,65.76431310221949,70.90991993536763,68.33526104719593,79.46836508939658,65.76853273381622,71.77263802901759,97.44407227215808,88.03954283246189,104.29411521354773,100.01460020853949,92.3057170611894,70.05351049019109,100.0116147668539,86.32688545097156,91.45416025639508,72.59882755223593,99.14255834707204,94.00467939011412,70.90933866224479,66.63348003785447,68.35526190099911,70.9168735554691,66.63644690146673,64.91732868122051,75.20890577486959,60.64482531418553,58.90672659225302,53.75334289288911,55.47449115864208,57.18620612684702,58.02841028834113
112.00654820699505,100.02943389144095,98.30662495001332,109.41777893430857,77.7465577603946,74.32148731061767,96.58699315066802,95.72477270848675,87.17847421879387,90.59634923032621,86.31464111072185,57.178410288341134,55.443282080743266,57.15734041349038,33.13094449273101,46.00311987703541,0,48.56993878672832,47.73146892462268,45.159003388940825,47.73218506402816,92.302081728299,92.31295863840397,88.89059221987895,97.43699315066802,95.73089644796414,95.73140553422954,94.01862156931709,95.72477270848675,88.03217397512488,90.59268853424761,87.16944590643193,92.30985982733516,89.73796720811833,100.8621127787822,87.1731709073283,93.17118789740866,108.5820804634027,99.18090880212542,122.270977004924,111.15140559143757,110.2901237364729,93.17067501618727,109.43350303336393,102.60236875482778,107.70720194207941,97.43293166859394,111.98255480505782,108.55575367078362,94.02170058686288,89.74895793114537,91.47221308476489,94.0324231443375,86.32635543878706,88.03901783035178,96.59960932048912,83.76944590643194,82.03652875988064,76.89090440808306,78.60890577486958,80.31891932367664,81.162252450978
93.15052073290268,81.16392246597644,77.72780291578087,88.85066088970184,58.8566752102704,55.42286362727394,77.71918261552567,75.14117851307014,68.30217186218029,71.71913429510899,67.43247516529061,40.02314002188184,36.5786530885395,43.44571401596889,41.709326673973656,34.00266127506765,48.56993878672832,0,32.203740671584065,48.58146892462268,40.838203946174524,70.00886528552718,70.021537451386,66.59543932619759,75.14941391937896,73.44235848216884,73.44176864365531,75.14941391937896,76.85526190099911,65.73433625966906,68.29666636385654,64.8706164598113,70.0167261889578,67.44236596587959,78.57837545156194,64.87124372907945,70.87752388510808,101.70262031569487,92.29843659472739,115.39906220684799,104.27697231928303,103.41509716980849,74.30175652692215,95.71347442220234,87.16784625431042,90.57104362153564,78.56571738080855,103.39407227215808,99.96553560920248,75.14824089815029,70.87213747060659,72.59882755223593,75.16050092936767,67.4460530092452,69.16068406554066,77.73009146001425,64.88804931791202,63.149715872396136,57.995974426073595,59.717268710306826,61.42906209274536,62.271214264281426
78.598811935401,66.60461032387555,64.87624930632609,76.00175652692215,44.26855865354369,40.834236959191365,63.151632311617625,62.28620612684701,53.72697979532218,57.15,52.85902180353053,54.597318003282666,52.87903170505092,61.46116492925218,46.01339244339988,45.167034771867066,47.73146892462268,32.203740671584065,0,39.155452235073724,33.12585183295794,55.43312329854669,55.44731800328267,52.01804039703737,60.57841028834113,58.870557681771515,58.87121426428143,60.57841028834113,62.28620612684701,51.15692911865732,53.72079931916121,50.290028408683305,55.443282080743266,52.86458119438515,64.01053196712206,50.29073836102172,56.30401019919164,87.15497844809789,77.7465577603946,100.85512454963964,89.72688545097155,88.86410616009513,59.73101514790497,88.0022816515639,82.88434078421577,77.72608370432039,63.99651436379101,90.5555171389147,87.125,62.30290808773895,56.30334289288911,58.03296468086452,60.595872939715186,52.874237521281074,54.590582769413366,63.16747483193135,50.31527397780106,48.57211110476118,43.410871835111834,45.13524729350049,46.84868329805051,47.689747306460625
94.87987771197305,82.89524370293779,81.1700270666407,92.28744158750953,55.442607908084334,52.008324724481156,76.02436207879859,76.87091154470747,68.31853273381621,68.31370904868871,65.74298129905961,55.46396957193333,57.189437928475044,57.15734041349038,45.158269925438546,46.006066158798646,45.159003388940825,48.58146892462268,39.155452235073724,0,37.42464278422679,66.58743131660773,66.60033962376335,63.17374930478287,71.72871752341263,70.02513297119943,70.02573115549431,71.72871752341263,73.43585412256314,62.31747483193135,64.87998893799896,61.45227038425243,66.59666636385656,64.0206164598113,75.15817527701903,61.452908087738955,67.4564357958832,96.57170058686289,83.73925850782534,100.00061370477373,95.71707946001686,88.00605560754511,70.88822346383162,92.28796720811835,82.02940415819239,78.58920337313937,73.42990995419142,89.70497844809789,84.56447864750655,71.755845139311,65.75217186218029,69.18644690146672,71.75175652692215,64.0454393261976,65.7515614399588,72.61918261552566,61.47374930478288,59.74008313903115,54.58584204876998,56.30734041349038,58.01924330720374,58.861322877356365
92.30934267202939,80.32334451347621,78.59768535697106,89.7162446581088,56.29395581803063,52.86388793759468,76.87551009787761,76.01166208160527,67.45886528552718,70.87573115549432,64.87936652597817,42.5875,42.58824970023976,44.300904174982946,37.435031779090444,46.870663432915855,47.73218506402816,40.838203946174524,33.12585183295794,37.42464278422679,0,65.72624930632608,65.73928431482224,62.312429773064345,70.86793086267981,69.16068406554066,69.16128969254015,70.86793086267981,72.57513297119942,61.45227038425243,64.01495515604888,60.58685325596421,65.7355752947295,63.159264959331175,74.29765395670034,60.5875,66.59543932619759,94.00416025639508,86.31089187197114,107.70478735559531,98.2875,97.42936806183121,71.73940636453652,98.27834819621168,91.44373546503766,82.86169528809455,76.00351049019109,95.68796720811834,90.5452437029378,72.59530330878819,66.59972822875669,70.04117851307014,70.88881506131105,63.17312343489039,66.60278196117046,73.45875710959646,62.32998893799895,60.59137241581414,55.43719875144545,57.15866956601199,58.870557681771515,59.71264704864785
70.03703938435082,58.037499999999994,56.30734041349038,67.43743131660773,30.51943566982562,27.078118293960532,52.86458119438515,51.99781010217376,43.432989147846854,45.14049521529883,40.85078091120982,61.452908087738955,75.1732129822725,82.03324539742015,85.4299536124407,70.90117130335352,92.302081728299,70.00886528552718,55.43312329854669,66.58743131660773,65.72624930632608,0,10.681696221699942,12.39749371855331,7.175,15.85368086475875,15.854949322010576,14.111431813636969,31.364852927038914,28.80931712742437,22.755982088170093,21.027495019900556,15.864994468999475,15.002409494849609,22.7473503688112,21.028614548034007,23.644509719154456,75.16513888095147,65.75217186218029,83.73980376414399,77.73863584236852,71.73999737394668,46.00753590011028,77.72723011289652,67.471537451386,65.73495594628162,50.275,71.71128969254015,69.99175030107287,46.875,40.86855865354369,44.30973629190523,43.44348092190568,39.15389780948955,40.86164343358574,49.46388793759468,36.582645172195484,34.832635124169045,29.660242559976748,31.38928369424434,33.105159145759394,33.94461075376564
70.04941391937895,58.05099386919274,56.32121426428143,67.45033962376334,30.538392351561075,27.098122650372247,52.87903170505092,52.0125,43.44868329805051,45.156066158798644,40.867026444547804,63.18619430556573,75.18522518190005,82.0447007376224,87.15874462749613,70.91340172655227,92.31295863840397,70.021537451386,55.44731800328267,66.60033962376335,65.73928431482224,10.681696221699942,0,3.645903944661325,12.407290597192576,19.321867148191636,19.322996789718854,15.847294481974739,26.194509719154457,23.636362695664616,24.48225270244976,24.48840849065072,19.32524995001999,20.190800280898817,27.931970798597867,24.489429111656886,18.46618787719331,75.17263802901759,65.76007812236935,83.7468712349343,77.74599357943771,71.74765395670035,46.02283413283046,77.73465582248657,67.47931388951373,65.74298129905961,50.290028408683305,71.71913429510899,69.99972822875668,46.8843303561305,40.87845638023549,44.325,43.45311987703541,39.16395432052155,40.87769876576397,49.47286362727394,36.599218410621134,34.8501838036566,29.679422863405993,31.407774721070172,33.123293690003756,33.96298062707545
66.62393568818739,54.62318160159406,52.89260790808434,64.02374930478288,27.09906191332893,23.656554138053128,49.44921844458556,48.58218506402816,40.0162593792153,41.72390137460662,37.433441424204226,59.759264959331176,71.76050092936767,78.62113384425086,83.7354352375752,67.48822346383162,88.89059221987895,66.59543932619759,52.01804039703737,63.17374930478287,62.312429773064345,12.39749371855331,3.645903944661325,0,14.122314560394404,17.6093028803477,17.61045577235374,14.132975140133196,29.636758101414568,21.925,22.770820393249934,21.042991057480585,22.77186773251883,23.636362695664616,29.642462120245874,22.77811779950094,21.91344272548578,71.74765395670035,62.33371623433732,80.32334451347621,74.32148731061767,68.32213747060658,42.59124252985083,74.30991993536762,64.05339173744223,62.316215704960285,46.85900338894083,68.2929812990596,66.57312343489039,43.45311987703541,37.445300228973494,40.89348092190568,40.020852186835654,35.73025209457291,37.44451453314074,46.042865172115526,33.16494219460031,31.413845040532898,26.23961560962435,27.969435669825618,29.685712256490884,30.524899186991444
75.17665704253471,63.1806110073761,61.45163231161763,72.57871752341262,35.679250414531104,32.24106336661484,58.01066017177982,57.144629120788814,48.582900681656085,50.290028408683305,46.00238188244002,68.31491684252568,80.31169528809455,87.16997869300985,92.28375644328341,76.04033765564058,97.43699315066802,75.14941391937896,60.57841028834113,71.72871752341263,70.86793086267981,7.175,12.407290597192576,14.122314560394404,0,8.907354268420008,8.909076704298839,8.920936456012068,34.80428539710727,30.525806032459144,19.309302880347698,24.475,19.317327911243286,20.183072863105032,26.19349657533401,24.4760408641495,27.087711833983974,80.30386901229754,70.89294802904402,88.87635543878706,82.87665333979119,76.87951972330661,51.1562305898749,82.86559027730146,72.61166208160526,70.87632903560186,55.42286362727394,76.85175652692214,75.13288577216906,52.02286362727394,46.019213598749005,49.45832472448115,48.59286517211553,44.30533044021428,46.0126623239745,54.60999705188269,41.73524729350049,39.98820394617453,34.820727573558976,36.5476990916593,38.262499999999996,39.10266127506765
70.04530330878819,58.046514363791005,56.31660969899959,67.4460530092452,30.532124510548034,27.091514497498192,52.874237521281074,52.00762716319083,43.44348092190568,45.15090417498294,40.86164343358574,66.60765117803248,78.60499003980111,85.46357099161027,90.57741525153209,74.33351631525488,95.73089644796414,73.44235848216884,58.870557681771515,70.02513297119943,69.16068406554066,15.85368086475875,19.321867148191636,17.6093028803477,8.907354268420008,0,0.037500000000000006,10.671367690874119,41.676249108416094,23.64349657533401,10.653114224009796,19.31618787719331,24.4760408641495,25.340448223982072,34.80428539710727,15.83953104637268,32.2375,78.59712168612369,69.18585412256314,87.16997869300985,81.1700270666407,75.17263802901759,46.01776159254229,81.15890577486958,70.90467838031567,69.16913429510899,50.285044415242275,75.14471492415555,73.42573115549432,50.31458119438515,44.31046863561493,44.31993878672832,46.8843303561305,42.596457209809294,40.87237804071866,52.90200701043292,36.59372814658597,34.844374768689825,29.67308230480331,31.401658437241196,33.117293551913875,33.956903804675626
70.04117851307014,58.042016483392075,56.311985169387974,67.44543932619759,30.53122499959999,27.084846922834952,52.873550804796714,52.00273064678407,43.44273538174824,45.145714015968885,40.856228448019586,66.60704364654062,78.60555017820873,85.46410616009513,90.57794484072193,74.33408620039282,95.73140553422954,73.44176864365531,58.87121426428143,70.02573115549431,69.16128969254015,15.854949322010576,19.322996789718854,17.61045577235374,8.909076704298839,0.037500000000000006,0,10.672857007984442,41.675446314744654,23.642481949223228,10.65155979670471,19.317327911243286,24.475,25.341465834296965,34.8051591457594,15.840832691319598,32.238392351561075,78.5931688340688,69.18169634424416,87.16944590643193,81.1705805759573,75.1732129822725,46.01848786776087,81.15834713016719,70.90526190099912,69.16973554703617,50.285757957107116,75.1441262496068,73.42513297119943,50.30971840133772,44.30533044021428,44.31485102477015,46.879317364290046,42.59124252985083,40.867026444547804,52.89731800328267,36.588203946174524,34.83852549156242,29.66668931125978,31.395495128834863,33.111249036979395,33.95078086890235
71.755845139311,59.75799650270206,58.02841028834113,69.15704364654061,32.24814237451723,28.808390565605876,54.586520622081395,53.720110288155155,45.156801311662974,46.86412200991368,42.575422200943976,70.03407400528852,82.02940415819239,88.88691576024819,92.28375644328341,72.61975919754678,94.01862156931709,75.14941391937896,60.57841028834113,71.72871752341263,70.86793086267981,14.111431813636969,15.847294481974739,14.132975140133196,8.920936456012068,10.671367690874119,10.672857007984442,0,34.7972609359551,27.073273807074468,15.838226253540274,22.7473503688112,21.012755048938807,23.60705308004757,31.351872662091125,21.019601686569686,27.058541636038417,76.88351631525488,67.471537451386,85.457131879345,79.45666970600871,73.45875710959646,47.730752262296654,79.44542914290618,69.19058808997906,67.45461032387554,51.99781010217376,73.43050571790229,71.71128969254015,48.59781010217376,42.59273538174824,46.03290068165608,45.167034771867066,40.87845638023549,42.58599879807615,51.185842048769985,38.30777888276826,36.559232942804215,31.38928369424434,33.117293551913875,34.832635124169045,35.6724392074798
71.73940636453652,59.74008313903115,58.00999705188269,69.14359630114826,32.228520230951,28.781970798597868,54.57148788539072,53.70062480480947,45.14049521529883,46.84348092190568,42.55389780948955,70.0209371246997,82.01836508939658,88.87635543878706,93.99006762889042,72.60817527701901,95.72477270848675,76.85526190099911,62.28620612684701,73.43585412256314,72.57513297119942,31.364852927038914,26.194509719154457,29.636758101414568,34.80428539710727,41.676249108416094,41.675446314744654,34.7972609359551,0,25.31872079375476,33.07399127902063,26.19349657533401,22.761319703320563,23.621867732518833,22.770820393249934,27.924245296843548,23.636362695664616,76.86745123105608,67.45461032387554,85.44524370293779,79.44542914290618,73.44706672746342,47.716307404504384,79.43294616670802,69.17871752341263,67.44236596587959,51.9836157786453,73.41732868122051,71.69789208987605,48.5778803607804,42.571615429558335,46.0126623239745,45.14645720980929,40.85700399668358,42.56472331882378,51.166658128379446,38.28582588582633,36.53600613036029,31.363933079529875,33.092839044194974,34.808644699481796,35.64814237451723
62.33371623433732,50.329031705050916,48.597105185023125,59.73555861195976,22.79044822398207,19.3375,45.156066158798644,44.28374246984916,35.71899726696924,37.42222775122097,33.1292504145311,60.61810386369067,72.61975919754678,79.47995361244071,82.87665333979119,66.62871752341263,88.03217397512488,65.73433625966906,51.15692911865732,62.31747483193135,61.45227038425243,28.80931712742437,23.636362695664616,21.925,30.525806032459144,23.64349657533401,23.642481949223228,27.073273807074468,25.31872079375476,0,18.438164517800928,11.536055552380589,20.183072863105032,22.784310784658548,25.34955342898166,11.5375,17.60583104080263,70.88822346383162,61.47374930478288,79.46781061282827,73.46687355546909,67.46732868122051,38.296869555732606,73.45409457685017,63.19850446233352,61.46116492925218,42.56549167118003,67.43681297934181,65.71684544588766,42.59124252985083,36.582645172195484,36.5929410674843,39.15855310796893,34.86737751296653,33.14103730595021,45.18146892462268,28.85951374293461,27.10467294240618,21.92395752833543,23.656554138053128,25.374245296843547,26.2125
64.89605300924521,52.89260790808434,51.16111015720345,62.29843638869076,25.360523574556115,21.90918984367176,47.720663432915856,46.84868329805051,38.285031779090446,39.98820394617453,35.69603856295089,63.1806110073761,75.18123413695365,82.04089358585439,85.4376213535042,69.19058808997906,90.59268853424761,68.29666636385654,53.72079931916121,64.87998893799896,64.01495515604888,22.755982088170093,24.48225270244976,22.770820393249934,19.309302880347698,10.653114224009796,10.65155979670471,15.838226253540274,33.07399127902063,18.438164517800928,0,8.910791918128874,17.567477973140807,20.167327911243287,29.648122650372247,8.898630467977549,25.342481949223227,73.45,64.03619430556573,82.0288544678735,76.02837545156194,70.02931388951373,40.86241437954473,76.01571738080855,65.76068406554066,64.02374930478288,45.13072552344931,69.99911650845334,68.27936652597816,45.156066158798644,39.14843614130332,39.15855310796893,41.72390137460662,37.433441424204226,35.707594746952196,47.74569385355138,31.42670278818932,29.67308230480331,24.494509719154458,26.22618437741389,27.943408535059962,28.781970798597868
61.47374930478288,49.46804039703736,47.73575795710712,58.87121426428143,21.91766851805368,18.469601686569685,44.289747306460626,43.42161542955834,34.85101042884327,36.559232942804215,32.26557111890993,59.75418238982516,71.755845139311,78.61670093155408,82.01336603959423,65.76431310221949,87.16944590643193,64.8706164598113,50.290028408683305,61.45227038425243,60.58685325596421,21.027495019900556,24.48840849065072,21.042991057480585,24.475,19.31618787719331,19.317327911243286,22.7473503688112,26.19349657533401,11.536055552380589,8.910791918128874,0,12.407290597192576,15.009994419615053,21.03418254469829,3.7023346655611955,20.191896603823388,70.02871752341262,60.61369318036881,78.60555017820873,72.6029261199259,66.60278196117046,37.427852493303966,72.59117851307013,62.33371623433732,60.595872939715186,41.696869555732604,66.57312343489039,64.85290808773895,41.72921337700229,35.71980601285574,35.73025209457291,38.29608523590114,34.004308931242086,32.27755286840177,44.31993878672832,27.995495128834865,26.23961560962435,21.05705308004757,22.79044822398207,24.50854163603842,25.34653158578775
70.04117851307014,58.042016483392075,56.311985169387974,67.44543932619759,30.53122499959999,27.084846922834952,52.873550804796714,52.00273064678407,43.44273538174824,45.145714015968885,40.856228448019586,64.90095069399172,76.89993749843741,83.75874462749614,87.15551713891469,70.90991993536763,92.30985982733516,70.0167261889578,55.443282080743266,66.59666636385656,65.7355752947295,15.864994468999475,19.32524995001999,22.77186773251883,19.317327911243286,24.4760408641495,24.475,21.012755048938807,22.761319703320563,20.183072863105032,17.567477973140807,12.407290597192576,0,4.572587197514099,14.131654257953418,8.910791918128874,9.799999999999999,75.16918261552567,65.75643579588319,83.7468712349343,77.74712168612369,71.74882755223594,46.01848786776087,77.73465582248657,67.48050571790229,65.74421097267943,50.285757957107116,71.71913429510899,69.99972822875668,46.880035075902896,40.87390137460662,44.31485102477015,43.44868329805051,39.15932667397366,40.867026444547804,49.46873082804046,36.588203946174524,34.83852549156242,29.66668931125978,31.395495128834863,33.111249036979395,33.95078086890235
67.4709371246997,55.46990069632653,53.739230484541324,64.8706164598113,27.944353746547968,24.501560760020116,50.29569385355138,49.42859912630249,40.86241437954473,42.570088310978896,38.27945295496689,62.32624930632608,74.32608370432038,81.18598211496116,84.58269735323653,68.33526104719593,89.73796720811833,67.44236596587959,52.86458119438515,64.0206164598113,63.159264959331175,15.002409494849609,20.190800280898817,23.636362695664616,20.183072863105032,25.340448223982072,25.341465834296965,23.60705308004757,23.621867732518833,22.784310784658548,20.167327911243287,15.009994419615053,4.572587197514099,0,14.992131211055035,11.524341649025256,14.140832691319599,72.59941391937895,63.1855752947295,81.175,75.1732129822725,69.17393568818738,43.4375,75.16166208160527,64.9052191350562,63.16810386369067,47.705330440214276,69.14482531418552,67.425,44.30533044021428,38.29765319026894,41.73974730646062,40.87314002188183,36.582645172195484,38.29057565652784,46.89498743710662,34.010868021243674,32.25951374293461,27.084846922834952,28.814852927038917,30.53122499959999,31.370348946906528
78.60499003980111,66.61128969254015,64.88309586973035,76.00817527701902,39.12061400746829,35.68432232979826,61.4433034802835,60.577758089739994,52.01804039703737,53.72492377765373,49.4386069744848,71.74471492415555,83.73925850782534,90.59634923032621,95.70985982733515,79.46836508939658,100.8621127787822,78.57837545156194,64.01053196712206,75.15817527701903,74.29765395670034,22.7473503688112,27.931970798597867,29.642462120245874,26.19349657533401,34.80428539710727,34.8051591457594,31.351872662091125,22.770820393249934,25.34955342898166,29.648122650372247,21.03418254469829,14.131654257953418,14.992131211055035,0,21.03529028797865,20.191896603823388,83.73160056179763,74.32206280526002,92.30260165976536,86.30390039880353,80.30778823734363,54.590582769413366,86.2930704737175,76.04033765564058,74.305845139311,58.8566752102704,80.28066293110665,78.56224224064334,55.456675210270404,49.454832075523065,52.89260790808434,52.02766422045335,47.74144780498017,49.44851452167707,58.042660171325004,45.17211110476117,43.42694053207312,38.262499999999996,39.98820394617453,41.702340706163696,42.5429410674843
61.47812067173685,49.47286362727394,47.74073836102172,58.875799121583576,21.925,18.477495019900555,44.294970237626565,43.42694053207312,34.85677447440969,36.564942194600306,32.27158383625775,59.75481898969922,71.75642809566091,78.61725589365368,82.01392246597645,65.76853273381622,87.1731709073283,64.87124372907945,50.29073836102172,61.452908087738955,60.5875,21.028614548034007,24.489429111656886,22.77811779950094,24.4760408641495,15.83953104637268,15.840832691319598,21.019601686569686,27.924245296843548,11.5375,8.898630467977549,3.7023346655611955,8.910791918128874,11.524341649025256,21.03529028797865,0,16.716237582645306,70.03288577216905,60.61810386369067,78.609464171781,72.60701077045732,66.60704364654062,37.433441424204226,72.59530330878819,62.33804931791201,60.60035505633409,41.702340706163696,66.57749722837796,64.8573617295175,41.73449518457828,35.72544631474466,35.73582588582633,38.301561146012844,34.01005087058848,32.28347915390848,44.325,28.001658437241197,26.246240577829965,21.0645016930001,22.797540321415184,24.51545440106271,25.353562363973513
70.90875710959646,58.91116492925217,57.181665382639196,68.31007812236935,31.402535045963724,27.963012123101592,53.73990684678965,52.873550804796714,44.31046863561493,46.01776159254229,41.72921337700229,65.76189500386222,77.75890577486959,84.61731260526876,88.01410616009514,71.77263802901759,93.17118789740866,70.87752388510808,56.30401019919164,67.4564357958832,66.59543932619759,23.644509719154456,18.46618787719331,21.91344272548578,27.087711833983974,32.2375,32.238392351561075,27.058541636038417,23.636362695664616,17.60583104080263,25.342481949223227,20.191896603823388,9.799999999999999,14.140832691319599,20.191896603823388,16.716237582645306,0,76.03636311413759,66.62453448225244,84.60981868974297,78.609464171781,72.61166208160526,46.8843303561305,78.59824877328198,68.34353728471295,66.60765117803248,51.1513272442114,72.58348003785446,70.8643131022195,47.7513272442114,41.74645720980929,45.18647098284744,44.32066343291586,40.032235217099206,41.73974730646062,50.339230484541325,37.46164343358574,35.713314832491605,30.543725393319377,32.27158383625775,33.986846760165804,34.82670278818932
93.17170058686288,81.18652875988063,79.46113787906002,92.29164078649988,60.59137241581414,55.446646430271464,76.03237575438662,76.87551009787761,70.03763157165848,68.31853273381621,67.45886528552718,93.16707946001686,105.15140018602727,105.15188455119545,113.68728990112889,97.44407227215808,108.5820804634027,101.70262031569487,87.15497844809789,96.57170058686289,94.00416025639508,75.16513888095147,75.17263802901759,71.74765395670035,80.30386901229754,78.59712168612369,78.5931688340688,76.88351631525488,76.86745123105608,70.88822346383162,73.45,70.02871752341262,75.16918261552567,72.59941391937895,83.73160056179763,70.03288577216905,76.03636311413759,0,30.5,45.131480676128064,33.94461075376564,45.103897809489546,70.87990995419142,76.85991993536761,63.149715872396136,61.46621570496029,75.1441262496068,69.1564357958832,60.57055768177152,64.90095069399172,57.17514533901236,70.90058579451866,68.32213747060658,60.60926495933118,67.46249999999999,67.48050571790229,63.1899013115178,63.17187064762387,58.01924330720374,59.74008313903115,61.45163231161763,62.29394641093611
83.76624465810882,71.77723011289652,70.05058579451865,82.88488812742588,51.17079931916121,46.02283413283046,70.0417686436553,67.46310468144532,60.623123434890395,62.32562482648527,58.042660171325004,83.76142813375343,95.74910685796331,95.74960932048911,104.28630385016541,88.03954283246189,99.18090880212542,92.29843659472739,77.7465577603946,83.73925850782534,86.31089187197114,65.75217186218029,65.76007812236935,62.33371623433732,70.89294802904402,69.18585412256314,69.18169634424416,67.471537451386,67.45461032387554,61.47374930478288,64.03619430556573,60.61369318036881,65.75643579588319,63.1855752947295,74.32206280526002,60.61810386369067,66.62453448225244,30.5,0,49.408269925438546,27.937711833983975,32.202807246245676,59.74458896394948,60.588792335571846,43.42161542955834,58.898436388690754,65.72998893799895,66.58557529472951,56.29530198985748,62.32998893799895,54.61066017177982,61.48681297934181,60.61810386369067,54.61396957193333,58.046514363791005,64.91370904868872,53.77252622345563,53.75334289288911,48.597105185023125,50.31942079143011,52.03176123691482,52.873550804796714
103.4421663392272,91.46141011455035,89.73744158750952,102.57055226936568,65.74727939055838,64.02749722837797,88.02423326872572,85.44089358585438,76.89486445045233,78.59712168612369,74.31745123105608,108.57828025083202,120.5565888185388,118.84616460960662,129.08745078663875,104.29411521354773,122.270977004924,115.39906220684799,100.85512454963964,100.00061370477373,107.70478735559531,83.73980376414399,83.7468712349343,80.32334451347621,88.87635543878706,87.16997869300985,87.16944590643193,85.457131879345,85.44524370293779,79.46781061282827,82.0288544678735,78.60555017820873,83.7468712349343,81.175,92.30260165976536,78.609464171781,84.60981868974297,45.131480676128064,49.408269925438546,0,52.87011028815516,39.97303350451171,67.45886528552718,51.14357309746188,47.70680131166298,64.87562482648528,71.72812085543038,57.18296468086452,50.30343161201947,76.89542914290617,72.61571738080855,79.47168687183598,73.46629560551702,69.18585412256314,72.60701077045732,79.47610246453802,71.76802863266838,68.3179308626798,63.16747483193135,64.88743131660773,66.59850446233352,67.44113430410272
97.45862299782446,85.47582521472476,83.75120136796731,94.86707946001687,63.17249721603218,59.74458896394948,82.0299536124407,81.16670093155408,72.61629560551701,76.03237575438662,71.75234146564111,95.74205333949529,107.72112839344497,107.72160626527615,116.25654820699505,100.01460020853949,111.15140559143757,104.27697231928303,89.72688545097155,95.71707946001686,98.2875,77.73863584236852,77.74599357943771,74.32148731061767,82.87665333979119,81.1700270666407,81.1705805759573,79.45666970600871,79.44542914290618,73.46687355546909,76.02837545156194,72.6029261199259,77.74712168612369,75.1732129822725,86.30390039880353,72.60701077045732,78.609464171781,33.94461075376564,27.937711833983975,52.87011028815516,0,20.192991057480587,54.59664643027146,57.169900696326536,39.994514533140745,58.89907631673146,65.7306110073761,63.17374930478287,56.3,76.03636311413759,68.32333658853715,75.19260311443357,74.32551009787761,68.32632903560184,71.755845139311,78.61725589365368,67.48407400528852,67.46672618895781,62.316215704960285,64.03619430556573,65.74727939055838,66.5899013115178
94.88344000592726,82.89903810567665,81.17389658135971,92.29111660566858,55.44731800328267,52.01734949746879,77.73863584236852,76.87493622282958,68.32273718283338,70.02871752341262,65.74727939055838,96.59306317157551,108.57494703294728,106.86394159719573,117.10748134316813,92.3057170611894,110.2901237364729,103.41509716980849,88.86410616009513,88.00605560754511,97.42936806183121,71.73999737394668,71.74765395670035,68.32213747060658,76.87951972330661,75.17263802901759,75.1732129822725,73.45875710959646,73.44706672746342,67.46732868122051,70.02931388951373,66.60278196117046,71.74882755223594,69.17393568818738,80.30778823734363,66.60704364654062,72.61166208160526,45.103897809489546,32.202807246245676,39.97303350451171,20.192991057480587,0,46.86557948921878,51.15483207552307,32.25341069821107,61.46306165597419,56.29395581803063,55.44865985905822,48.586470982847445,70.03763157165848,62.32187064762387,67.47513297119943,66.60704364654062,62.324999999999996,64.03619430556573,72.61975919754678,59.763061655974184,59.74458896394948,54.590582769413366,56.311985169387974,58.02383657974572,58.86595028026639
62.33371623433732,50.329031705050916,48.597105185023125,61.45227038425243,24.516436494045355,22.79044822398207,46.875,44.28374246984916,35.71412889663522,37.42222775122097,33.1292504145311,70.90526190099912,82.89903810567665,89.75571706118939,93.15260165976535,70.05351049019109,93.17067501618727,74.30175652692215,59.73101514790497,70.88822346383162,71.73940636453652,46.00753590011028,46.02283413283046,42.59124252985083,51.1562305898749,46.01776159254229,46.01848786776087,47.730752262296654,47.716307404504384,38.296869555732606,40.86241437954473,37.427852493303966,46.01848786776087,43.4375,54.590582769413366,37.433441424204226,46.8843303561305,70.87990995419142,59.74458896394948,67.45886528552718,54.59664643027146,46.86557948921878,0,54.58312329854669,37.42303350451171,47.726441242471864,27.105604062985368,45.147941849482336,46.850904174982944,42.59124252985083,40.026181677642136,40.03148067612807,39.15855310796893,34.86737751296653,33.14103730595021,45.18146892462268,32.30677447440969,27.10467294240618,21.92395752833543,23.656554138053128,25.374245296843547,26.2125
95.72528406156691,83.7403487900564,80.30499003980111,91.42635543878706,61.43814635964102,58.005343545960265,78.58636311413758,77.71918261552567,70.88110118110177,72.58703938435082,70.01189500386222,95.73191443295161,105.99994611968859,114.5621383865242,116.25187382958757,100.0116147668539,109.43350303336393,95.71347442220234,88.0022816515639,92.28796720811835,98.27834819621168,77.72723011289652,77.73465582248657,74.30991993536762,82.86559027730146,81.15890577486958,81.15834713016719,79.44542914290618,79.43294616670802,73.45409457685017,76.01571738080855,72.59117851307013,77.73465582248657,75.16166208160527,86.2930704737175,72.59530330878819,78.59824877328198,76.85991993536761,60.588792335571846,51.14357309746188,57.169900696326536,51.15483207552307,54.58312329854669,0,43.45973629190523,45.126940532073114,58.85334289288911,44.28824970023976,49.425,74.30991993536762,68.30643579588319,73.45817527701902,72.59058808997906,66.59850446233352,70.02033649007454,78.60499003980111,65.74789208987605,65.72998893799895,60.577758089739994,62.29843638869076,64.00989864402115,64.85227038425244
87.19164078649987,75.20442965127583,71.76802863266838,84.60551713891469,49.46388793759468,47.74569385355138,71.76050092936767,67.46672618895781,60.623123434890395,62.329366525978166,58.046514363791005,92.32016194298339,102.59557514505472,102.59216633922719,112.84389382152816,86.32688545097156,102.60236875482778,87.16784625431042,82.88434078421577,82.02940415819239,91.44373546503766,67.471537451386,67.47931388951373,64.05339173744223,72.61166208160526,70.90467838031567,70.90526190099912,69.19058808997906,69.17871752341263,63.19850446233352,65.76068406554066,62.33371623433732,67.48050571790229,64.9052191350562,76.04033765564058,62.33804931791201,68.34353728471295,63.149715872396136,43.42161542955834,47.70680131166298,39.994514533140745,32.25341069821107,37.42303350451171,43.45973629190523,0,55.45800519847494,52.01734949746879,46.00533044021427,40.853897809489546,60.623749304782876,58.05609109028144,63.206435795883195,58.90672659225302,52.91132287735637,56.33491071061171,63.207651178032485,55.497155412874584,52.04125825326861,46.8843303561305,48.60692911865732,50.31942079143011,51.16111015720345
82.03816730279883,70.04706672746342,68.31973554703616,81.16058022354787,49.44428051876721,47.72572088734432,64.89359630114826,65.73123273467488,57.174491158642084,57.17318160159407,56.30734041349038,83.74741329190047,95.73496389844645,100.86857102395334,105.98532444067534,91.45416025639508,107.70720194207941,90.57104362153564,77.72608370432039,78.58920337313937,82.86169528809455,65.73495594628162,65.74298129905961,62.316215704960285,70.87632903560186,69.16913429510899,69.16973554703617,67.45461032387554,67.44236596587959,61.46116492925218,64.02374930478288,60.595872939715186,65.74421097267943,63.16810386369067,74.305845139311,60.60035505633409,66.60765117803248,61.46621570496029,58.898436388690754,64.87562482648528,58.89907631673146,61.46306165597419,47.726441242471864,45.126940532073114,55.45800519847494,0,51.999218444585566,56.285842048769986,47.691989251531034,57.190727967918676,54.61990069632653,64.90886528552718,58.89779608762283,51.185842048769985,58.037499999999994,58.051632311617624,57.19971587239614,52.02217598778292,46.86412200991368,48.58718349358161,50.299921871948,51.14144780498017
70.02871752341262,58.02841028834113,56.29798914593616,67.42874377074693,30.506534037568702,27.06447095812216,52.85483207552307,51.98789549042396,43.42237804071866,45.12996975757279,40.83978578882785,75.16918261552567,87.16196417634019,92.3015615968205,97.4150206042401,72.59882755223593,97.43293166859394,78.56571738080855,63.99651436379101,73.42990995419142,76.00351049019109,50.275,50.290028408683305,46.85900338894083,55.42286362727394,50.285044415242275,50.285757957107116,51.99781010217376,51.9836157786453,42.56549167118003,45.13072552344931,41.696869555732604,50.285757957107116,47.705330440214276,58.8566752102704,41.702340706163696,51.1513272442114,75.1441262496068,65.72998893799895,71.72812085543038,65.7306110073761,56.29395581803063,27.105604062985368,58.85334289288911,52.01734949746879,51.999218444585566,0,51.12283413283046,51.13290068165608,50.29498743710662,44.289747306460626,44.299424167587915,46.86412200991368,42.575422200943976,40.85078091120982,52.88312329854669,36.57142125289666,34.820727573558976,29.647182206693923,31.376711819145296,33.092839044194974,33.93212451054803
96.57118789740866,84.58598211496117,82.86058022354787,93.98164606784235,57.13516303063817,53.70062480480947,77.71802863266838,78.56108164464663,70.01189500386222,70.00339173744223,67.43247516529061,94.85104126509889,106.84021482772536,113.68776258186581,118.8,99.14255834707204,111.98255480505782,103.39407227215808,90.5555171389147,89.70497844809789,95.68796720811834,71.71128969254015,71.71913429510899,68.2929812990596,76.85175652692214,75.14471492415555,75.1441262496068,73.43050571790229,73.41732868122051,67.43681297934181,69.99911650845334,66.57312343489039,71.71913429510899,69.14482531418552,80.28066293110665,66.57749722837796,72.58348003785446,69.1564357958832,66.58557529472951,57.18296468086452,63.17374930478287,55.44865985905822,45.147941849482336,44.28824970023976,46.00533044021427,56.285842048769986,51.12283413283046,0,31.361166867381915,71.72692661198563,64.00672659225303,69.16068406554066,68.29236596587958,62.29843638869076,65.72124372907945,74.30933866224478,61.447796087622834,61.42906209274536,56.27423752128107,57.995974426073595,59.70800519847494,60.55
94.85467939011413,82.86836508939658,81.14260311443356,92.26464111072185,55.41319420645797,51.9778803607804,74.28881506131104,76.84235848216883,68.29236596587958,66.57249721603219,65.71242977306434,93.1342835155993,105.1245064934917,105.13189123190276,115.37351620282912,94.00467939011412,108.55575367078362,99.96553560920248,87.125,84.56447864750655,90.5452437029378,69.99175030107287,69.99972822875668,66.57312343489039,75.13288577216906,73.42573115549432,73.42513297119943,71.71128969254015,71.69789208987605,65.71684544588766,68.27936652597816,64.85290808773895,69.99972822875668,67.425,78.56224224064334,64.8573617295175,70.8643131022195,60.57055768177152,56.29530198985748,50.30343161201947,56.3,48.586470982847445,46.850904174982944,49.425,40.853897809489546,47.691989251531034,51.13290068165608,31.361166867381915,0,63.16306165597418,55.43448356681003,67.44113430410272,64.86116492925218,57.15401019919164,64.00099386919274,64.02874377074693,59.72710549622588,59.70800519847494,54.55202919119155,56.27423752128107,57.98652062208139,58.828348190060154
64.90461032387554,52.90200701043292,51.17079931916121,65.73866698380166,28.82126114254512,25.374245296843547,47.74073836102172,46.85900338894083,40.01009958246337,36.570614007468286,35.707594746952196,73.47033550714548,83.75012018675199,90.6108935483718,94.00364092358349,70.90933866224479,94.02170058686288,75.14824089815029,62.30290808773895,71.755845139311,72.59530330878819,46.875,46.8843303561305,43.45311987703541,52.02286362727394,50.31458119438515,50.30971840133772,48.59781010217376,48.5778803607804,42.59124252985083,45.156066158798644,41.72921337700229,46.880035075902896,44.30533044021428,55.456675210270404,41.73449518457828,47.7513272442114,64.90095069399172,62.32998893799895,76.89542914290617,76.03636311413759,70.03763157165848,42.59124252985083,74.30991993536762,60.623749304782876,57.190727967918676,50.29498743710662,71.72692661198563,63.16306165597418,0,20.21661458129867,25.37618437741389,19.330847644047278,20.20490934487149,23.636362695664616,21.946531585787753,26.246240577829965,24.50854163603842,24.50854163603842,24.50854163603842,22.784310784658548,21.911319703320565
62.34236596587958,50.338553681809465,48.60692911865732,61.45609109028145,24.522301010659685,19.34626329773553,43.44422587340107,44.29422587340107,37.44451453314074,33.99437476868982,33.14103730595021,67.47573115549432,79.47610246453802,84.62104362153563,89.73058962494075,66.63348003785447,89.74895793114537,70.87213747060659,56.30334289288911,65.75217186218029,66.59972822875669,40.86855865354369,40.87845638023549,37.445300228973494,46.019213598749005,44.31046863561493,44.30533044021428,42.59273538174824,42.571615429558335,36.582645172195484,39.14843614130332,35.71980601285574,40.87390137460662,38.29765319026894,49.454832075523065,35.72544631474466,41.74645720980929,57.17514533901236,54.61066017177982,72.61571738080855,68.32333658853715,62.32187064762387,40.026181677642136,68.30643579588319,58.05609109028144,54.61990069632653,44.289747306460626,64.00672659225303,55.43448356681003,20.21661458129867,0,27.976711819145297,27.11209005373381,15.88215655110975,26.252807246245677,24.55093691479378,21.953562363973514,25.387711833983975,21.93840849065072,21.93840849065072,23.656554138053128,21.052758569457342
62.34666636385654,50.343282080743265,48.61180531724241,61.460531967122066,24.529083328570884,19.360255632312214,46.8843303561305,44.299424167587915,37.449999999999996,37.43899521933472,33.14686923429771,69.20234146564111,81.20066088970184,88.05727208031404,91.45416025639508,68.35526190099911,91.47221308476489,72.59882755223593,58.03296468086452,69.18644690146672,70.04117851307014,44.30973629190523,44.325,40.89348092190568,49.45832472448115,44.31993878672832,44.31485102477015,46.03290068165608,46.0126623239745,36.5929410674843,39.15855310796893,35.73025209457291,44.31485102477015,41.73974730646062,52.89260790808434,35.73582588582633,45.18647098284744,70.90058579451866,61.48681297934181,79.47168687183598,75.19260311443357,67.47513297119943,40.03148067612807,73.45817527701902,63.206435795883195,64.90886528552718,44.299424167587915,69.16068406554066,67.44113430410272,25.37618437741389,27.976711819145297,0,18.495174395028194,22.797540321415184,14.176085931090146,24.53675810141457,11.54607837082461,18.48639610306789,21.945521387162177,16.756990527108947,20.220820393249937,19.340800280898815
61.47812067173685,49.47286362727394,47.74073836102172,62.31179753102801,25.38100957586067,21.931221329671935,47.73575795710712,43.42694053207312,36.57624910841609,36.564942194600306,32.27158383625775,71.7639810542179,83.76142813375343,90.61759368966078,94.01450540489951,70.9168735554691,94.0324231443375,75.16050092936767,60.595872939715186,71.75175652692215,70.88881506131105,43.44348092190568,43.45311987703541,40.020852186835654,48.59286517211553,46.8843303561305,46.879317364290046,45.167034771867066,45.14645720980929,39.15855310796893,41.72390137460662,38.29608523590114,43.44868329805051,40.87314002188183,52.02766422045335,38.301561146012844,44.32066343291586,68.32213747060658,60.61810386369067,73.46629560551702,74.32551009787761,66.60704364654062,39.15855310796893,72.59058808997906,58.90672659225302,58.89779608762283,46.86412200991368,68.29236596587958,64.86116492925218,19.330847644047278,27.11209005373381,18.495174395028194,0,27.123991279020633,15.011248608016091,23.67715197861245,19.34626329773553,22.797540321415184,17.6093028803477,19.345174395028195,24.51545440106271,20.190800280898817
57.195231139988266,45.18647098284744,43.45311987703541,58.02841028834113,21.079153885360306,17.62524995001999,41.73449518457828,39.13661928131527,32.28347915390848,30.556031947257676,27.975806032459143,65.76431310221949,77.76559027730147,82.91089187197113,86.3076696830622,66.63644690146673,86.32635543878706,67.4460530092452,52.874237521281074,64.0454393261976,63.17312343489039,39.15389780948955,39.16395432052155,35.73025209457291,44.30533044021428,42.596457209809294,42.59124252985083,40.87845638023549,40.85700399668358,34.86737751296653,37.433441424204226,34.004308931242086,39.15932667397366,36.582645172195484,47.74144780498017,34.01005087058848,40.032235217099206,60.60926495933118,54.61396957193333,69.18585412256314,68.32632903560184,62.324999999999996,34.86737751296653,66.59850446233352,52.91132287735637,51.185842048769985,42.575422200943976,62.29843638869076,57.15401019919164,20.20490934487149,15.88215655110975,22.797540321415184,27.123991279020633,0,19.345174395028195,19.3538348415311,20.23431078465855,13.277671772980137,16.756990527108947,15.018715658303865,13.288226253540275,14.135607132140713
55.47449115864208,43.46339244339988,41.72921337700229,56.30734041349038,19.345174395028195,15.888164517800929,41.72390137460662,37.41086802124367,30.556031947257676,30.543725393319377,26.246240577829965,65.76431310221949,77.76559027730147,84.6237021946042,88.02051126462443,64.91732868122051,88.03901783035178,69.16068406554066,54.590582769413366,65.7515614399588,66.60278196117046,40.86164343358574,40.87769876576397,37.44451453314074,46.0126623239745,40.87237804071866,40.867026444547804,42.58599879807615,42.56472331882378,33.14103730595021,35.707594746952196,32.27755286840177,40.867026444547804,38.29057565652784,49.44851452167707,32.28347915390848,41.73974730646062,67.46249999999999,58.046514363791005,72.60701077045732,71.755845139311,64.03619430556573,33.14103730595021,70.02033649007454,56.33491071061171,58.037499999999994,40.85078091120982,65.72124372907945,64.00099386919274,23.636362695664616,26.252807246245677,14.176085931090146,15.011248608016091,19.345174395028195,0,26.25931712742437,13.307477578024445,11.553115294937452,11.553115294937452,13.277671772980137,13.288226253540275,15.856214886532173
67.48763157165848,55.488146359641014,53.75800519847494,68.32213747060658,31.419870416590328,27.975806032459143,50.32492377765373,49.44851452167707,42.601643315533714,39.15932667397366,38.301561146012844,76.0516239451209,88.04634923032621,91.47272539132923,96.58191443295162,75.20890577486959,96.59960932048912,77.73009146001425,63.16747483193135,72.61918261552566,73.45875710959646,49.46388793759468,49.47286362727394,46.042865172115526,54.60999705188269,52.90200701043292,52.89731800328267,51.185842048769985,51.166658128379446,45.18146892462268,47.74569385355138,44.31993878672832,49.46873082804046,46.89498743710662,58.042660171325004,44.325,50.339230484541325,67.48050571790229,64.91370904868872,79.47610246453802,78.61725589365368,72.61975919754678,45.18146892462268,78.60499003980111,63.207651178032485,58.051632311617624,52.88312329854669,74.30933866224478,64.02874377074693,21.946531585787753,24.55093691479378,24.53675810141457,23.67715197861245,19.3538348415311,26.25931712742437,0,28.846378521809825,23.657548584904244,27.111166867381915,25.39435374654797,27.111166867381915,26.229083328570884
54.636853255964205,42.62716106655965,40.89348092190568,53.748659859058215,16.780847644047277,11.592131211055035,39.16395432052155,36.57624910841609,29.7224392074798,29.710381854436534,25.413933079529876,61.49175030107288,73.49486445045234,80.35390039880353,83.75066088970185,60.64482531418553,83.76944590643194,64.88804931791202,50.31527397780106,61.47374930478288,62.32998893799895,36.582645172195484,36.599218410621134,33.16494219460031,41.73524729350049,36.59372814658597,36.588203946174524,38.30777888276826,38.28582588582633,28.85951374293461,31.42670278818932,27.995495128834865,36.588203946174524,34.010868021243674,45.17211110476117,28.001658437241197,37.46164343358574,63.1899013115178,53.77252622345563,71.76802863266838,67.48407400528852,59.763061655974184,32.30677447440969,65.74789208987605,55.497155412874584,57.19971587239614,36.57142125289666,61.447796087622834,59.72710549622588,26.246240577829965,21.953562363973514,11.54607837082461,19.34626329773553,20.23431078465855,13.307477578024445,28.846378521809825,0,10.701715806009735,10.720966649604367,12.45240949484961,14.184567147554496,16.758147802758504
49.45832472448115,37.43899521933472,35.70183625187004,50.290028408683305,13.277671772980137,9.806207189772365,35.69603856295089,31.376711819145296,24.51545440106271,24.501560760020116,20.197350368811204,59.75354542271716,71.75991993536762,78.6205805759573,82.01725589365368,58.90672659225302,82.03652875988064,63.149715872396136,48.57211110476118,59.74008313903115,60.59137241581414,34.832635124169045,34.8501838036566,31.413845040532898,39.98820394617453,34.844374768689825,34.83852549156242,36.559232942804215,36.53600613036029,27.10467294240618,29.67308230480331,26.23961560962435,34.83852549156242,32.25951374293461,43.42694053207312,26.246240577829965,35.713314832491605,63.17187064762387,53.75334289288911,68.3179308626798,67.46672618895781,59.74458896394948,27.10467294240618,65.72998893799895,52.04125825326861,52.02217598778292,34.820727573558976,61.42906209274536,59.70800519847494,24.50854163603842,25.387711833983975,18.48639610306789,22.797540321415184,13.277671772980137,11.553115294937452,23.657548584904244,10.701715806009735,0,5.439576942680153,8.930842198490351,7.189711431702997,9.764201038144522
44.299424167587915,32.27158383625775,30.53122499959999,45.12996975757279,8.053887360535088,4.554651440173848,30.524899186991444,26.198547600382394,19.329732085890498,19.313901457890434,15.001135192126215,54.599999999999994,66.61128969254015,73.47436207879859,76.87091154470747,53.75334289288911,76.89090440808306,57.995974426073595,43.410871835111834,54.58584204876998,55.43719875144545,29.660242559976748,29.679422863405993,26.23961560962435,34.820727573558976,29.67308230480331,29.66668931125978,31.38928369424434,31.363933079529875,21.92395752833543,24.494509719154458,21.05705308004757,29.66668931125978,27.084846922834952,38.262499999999996,21.0645016930001,30.543725393319377,58.01924330720374,48.597105185023125,63.16747483193135,62.316215704960285,54.590582769413366,21.92395752833543,60.577758089739994,46.8843303561305,46.86412200991368,29.647182206693923,56.27423752128107,54.55202919119155,24.50854163603842,21.93840849065072,21.945521387162177,17.6093028803477,16.756990527108947,11.553115294937452,27.111166867381915,10.720966649604367,5.439576942680153,0,5.439576942680153,7.175,8.001781181986757
46.02283413283046,33.998528137423854,32.25951374293461,46.853857300648265,9.806207189772365,6.321231060122938,32.25341069821107,27.930047087522443,21.0645016930001,21.049519052838328,16.740550590550885,56.32121426428143,68.33050571790228,75.19260311443357,78.58920337313937,55.47449115864208,78.60890577486958,59.717268710306826,45.13524729350049,56.30734041349038,57.15866956601199,31.38928369424434,31.407774721070172,27.969435669825618,36.5476990916593,31.401658437241196,31.395495128834863,33.117293551913875,33.092839044194974,23.656554138053128,26.22618437741389,22.79044822398207,31.395495128834863,28.814852927038917,39.98820394617453,22.797540321415184,32.27158383625775,59.74008313903115,50.31942079143011,64.88743131660773,64.03619430556573,56.311985169387974,23.656554138053128,62.29843638869076,48.60692911865732,48.58718349358161,31.376711819145296,57.995974426073595,56.27423752128107,24.50854163603842,21.93840849065072,16.756990527108947,19.345174395028195,15.018715658303865,13.277671772980137,25.39435374654797,12.45240949484961,8.930842198490351,5.439576942680153,0,7.189711431702997,9.760791918128874
47.73575795710712,35.713314832491605,33.975,48.56703477186707,11.533153702252191,8.053887360535088,33.969012362544056,29.647182206693923,22.783282518435822,22.76872079375476,18.46160649113625,58.03296468086452,70.04117851307014,76.90274698163675,80.29937484367183,57.18620612684702,80.31891932367664,61.42906209274536,46.84868329805051,58.01924330720374,58.870557681771515,33.105159145759394,33.123293690003756,29.685712256490884,38.262499999999996,33.117293551913875,33.111249036979395,34.832635124169045,34.808644699481796,25.374245296843547,27.943408535059962,24.50854163603842,33.111249036979395,30.53122499959999,41.702340706163696,24.51545440106271,33.986846760165804,61.45163231161763,52.03176123691482,66.59850446233352,65.74727939055838,58.02383657974572,25.374245296843547,64.00989864402115,50.31942079143011,50.299921871948,33.092839044194974,59.70800519847494,57.98652062208139,22.784310784658548,23.656554138053128,20.220820393249937,24.51545440106271,13.288226253540275,13.288226253540275,27.111166867381915,14.184567147554496,7.189711431702997,7.175,7.189711431702997,0,11.490525254667652
48.577161066559654,36.55348550075557,34.814708536840016,49.408269925438546,12.365362761724658,8.882426463519458,34.808644699481796,30.485803132638072,23.620820393249936,23.605982088170094,19.297651654394095,58.875145339012356,70.88407400528853,77.74599357943771,81.14260311443356,58.02841028834113,81.162252450978,62.271214264281426,47.689747306460625,58.861322877356365,59.71264704864785,33.94461075376564,33.96298062707545,30.524899186991444,39.10266127506765,33.956903804675626,33.95078086890235,35.6724392074798,35.64814237451723,26.2125,28.781970798597868,25.34653158578775,33.95078086890235,31.370348946906528,42.5429410674843,25.353562363973513,34.82670278818932,62.29394641093611,52.873550804796714,67.44113430410272,66.5899013115178,58.86595028026639,26.2125,64.85227038425244,51.16111015720345,51.14144780498017,33.93212451054803,60.55,58.828348190060154,21.911319703320565,21.052758569457342,19.340800280898815,20.190800280898817,14.135607132140713,15.856214886532173,26.229083328570884,16.758147802758504,9.764201038144522,8.001781181986757,9.760791918128874,11.490525254667652,0
