#Shewanella oneidensis MR-1
203840	SO_A0013	umuD
203839	SO_A0012	umuC

202537	SO_3430	recA
202536	SO_3429	recX

203673	SO_4603	lexA
203674	SO_4604	sulA

202565	SO_3462	recN

202180	SO_3061	topB

200981	SO_1819	dinG
200980	SO_1818	SO1818
200979	SO_1817	SO1817

201744	SO_2604	yebG
201743	SO_2603	yebR

200294	SO_1114	dinB

203442	SO_4364	recG

201194	SO_2037	xerD


#Shewanella putrefaciens CN-32
3439492	Sputcn32_2771	recN

3438167	Sputcn32_1513	dinG
3438166	Sputcn32_1512	SO1818
3438165	Sputcn32_1511	SO1817

3439468	Sputcn32_2747	recA
3439467	Sputcn32_2746	recX

3436805	Sputcn32_0175	umuD

3440532	Sputcn32_3780	lexA
3440533	Sputcn32_3781	sulA

3439128	Sputcn32_2435	topB

3438892	Sputcn32_2205	yebG
3438891	Sputcn32_2204	yebR

3437593	Sputcn32_0951	dinB

3437084	Sputcn32_0450	recG


#Shewanella sp W3-18-1
6979128	Sputw3181_1241	recN

6980537	Sputw3181_2587	dinG
6980538	Sputw3181_2588	SO1818
6980539	Sputw3181_2589	SO1817

6979152	Sputw3181_1265	recA
6979153	Sputw3181_1266	recX

6977994	Sputw3181_0135	lexA
6977993	Sputw3181_0134	sulA

6979486	Sputw3181_1573	topB

6979723	Sputw3181_1804	yebG
6979724	Sputw3181_1805	yebR

6981185	Sputw3181_3225	dinB

6978171	Sputw3181_0304	recG

6980858	Sputw3181_2904	ogr

6978970	Sputw3181_1083	umuD
6978969	Sputw3181_1082	umuC


#Shewanella sp ANA-3
7023906	Shewana3_1126	recA
7023907	Shewana3_1127	recX

7026860	Shewana3_3989	lexA
7026861	Shewana3_3990	sulA

7023884	Shewana3_1104	recN

7024294	Shewana3_1486	topB

7025475	Shewana3_2630	dinG
7025476	Shewana3_2631	SO1818
7025477	Shewana3_2632	SO1817

7024597	Shewana3_1775	yebG
7024598	Shewana3_1776	yebR

7023719	Shewana3_0949	dinB

7023110	Shewana3_0348	recG

7024656	Shewana3_1833	umuD
7024655	Shewana3_1832	umuC

7022528	Shewana3_4173	umuD
7022527	Shewana3_4172	umuC


#Shewanella sp MR-4
6864342	Shewmr4_1104	recN

6867124	Shewmr4_3789	lexA
6867125	Shewmr4_3790	sulA

6864363	Shewmr4_1125	recA
6864364	Shewmr4_1126	recX

6865778	Shewmr4_2470	dinG
6865779	Shewmr4_2471	SO1818
6865780	Shewmr4_2472	SO1817

6864951	Shewmr4_1670	yebG
6864952	Shewmr4_1671	yebR

6864699	Shewmr4_1433	topB

6864174	Shewmr4_0947	dinB

6863570	Shewmr4_0354	recG

6865064	Shewmr4_1782	umuD


#Shewanella sp MR-7
6871291	Shewmr7_3862	lexA
6871292	Shewmr7_3863	sulA

6868526	Shewmr7_1196	recA
6868527	Shewmr7_1197	recX

6868500	Shewmr7_1170	recN

6868856	Shewmr7_1498	topB

6869939	Shewmr7_2538	dinG
6869940	Shewmr7_2539	SO1818
6869941	Shewmr7_2540	SO1817

6869118	Shewmr7_1745	yebG
6869119	Shewmr7_1746	yebR

6868304	Shewmr7_0985	dinB

6871097	Shewmr7_3672	recG

6869585	Shewmr7_2195	umuD
6869586	Shewmr7_2196	umuC

6868035	Shewmr7_0718	ogr

6869522	Shewmr7_2132	xerD


#Shewanella baltica OS155
6934514	Sbal_3153	recN

6932919	Sbal_1629	dinG
6932918	Sbal_1628	SO1818
6932917	Sbal_1627	SO1817

6934478	Sbal_3117	recA
6934477	Sbal_3116	recX

6931420	Sbal_0156	lexA
6931419	Sbal_0155	sulA

6934929	Sbal_3554	umuD
6934928	Sbal_3553	umuC

6934068	Sbal_2736	topB

6933763	Sbal_2450	yebG
6933762	Sbal_2449	yebR

6932214	Sbal_0935	dinB

6931614	Sbal_0346	recG

6932564	Sbal_1278	ogr

6933665	Sbal_2352	umuD
6933666	Sbal_2353	umuC


#Shewanella denitrificans OS217
6909527	Sden_1151	recN

6909584	Sden_1208	recA

6911975	Sden_3515	lexA
6911976	Sden_3516	sulA

6910852	Sden_2429	dinG
6910853	Sden_2430	SO1818
6910854	Sden_2431	SO1817

6910823	Sden_2400	topB

6910122	Sden_1719	yebG
6910123	Sden_1720	yebR

6909561	Sden_1185	dinB

6911936	Sden_3476	recG

6911690	Sden_3236	umuD
6911689	Sden_3235	umuC

6909507	Sden_1131	xerC


#Shewanella frigidimarina NCIMB 400
6913332	Sfri_1043	recN

6913351	Sfri_1062	recA

6912522	Sfri_0260	lexA
6912521	Sfri_0259	sulA

6914963	Sfri_2630	dinG
6914964	Sfri_2631	SO1818
6914965	Sfri_2632	SO1817

6914281	Sfri_1963	umuD
6914282	Sfri_1964	umuC

6913699	Sfri_1401	topB

6914560	Sfri_2231	yebG
6914559	Sfri_2230	yebR

6913247	Sfri_0961	dinB

6912618	Sfri_0356	recG


#Shewanella amazonensis SB2B
6939389	Sama_3481	lexA
6939390	Sama_3482	sulA

6937079	Sama_1249	dinG
6937078	Sama_1248	SO1818
6937077	Sama_1247	SO1817

6938012	Sama_2145	topB

6939282	Sama_3375	recG

6936864	Sama_1046	recA
6936865	Sama_1047	recX

6936844	Sama_1026	recN

6937418	Sama_1582	yebG
6937419	Sama_1583	yebR

6938408	Sama_2527	dinB

6937723	Sama_1865	imuA
6937722	Sama_1864	imuB
6937721	Sama_1863	dnaE2

6937185	Sama_1355	xerD

6937477	Sama_1633	xerD


#Shewanella loihica PV-4
5211091	Shew_3507	recG

5207593	Shew_0127	lexA
5207592	Shew_0126	sulA

5209846	Shew_2299	topB

5208706	Shew_1215	recA
5208707	Shew_1216	recX

5208687	Shew_1196	recN

5210035	Shew_2483	dinG
5210036	Shew_2484	SO1818
5210037	Shew_2485	SO1817

5209321	Shew_1799	yebG
5209322	Shew_1800	yebR

5210430	Shew_2871	dinB

5209645	Shew_2102	imuA
5209644	Shew_2101	imuB
5209643	Shew_2100	dnaE2

5210719	Shew_3147	xerC


#Shewanella pealeana ATCC 700345
7162151	Spea_3997	lexA
7162152	Spea_3998	sulA

7160280	Spea_2196	umuD
7160279	Spea_2195	umuC

7159690	Spea_1625	topB

7159222	Spea_1195	recA

7162038	Spea_3884	recG

7159196	Spea_1169	recN

7160775	Spea_2656	dinG
7160776	Spea_2657	SO1818
7160777	Spea_2658	SO1817

7160001	Spea_1932	yebG
7160002	Spea_1933	yebR

7161217	Spea_3092	dinB

7160748	Spea_2629	xerC


#Shewanella halifaxensis HAW-EB4
3784115	Shal_0260	lexA
3784114	Shal_0259	sulA

3786106	Shal_2170	umuD
3786105	Shal_2169	umuC

3786120	Shal_2184	umuD
3786119	Shal_2183	umuC

3785103	Shal_1232	recA

3786583	Shal_2636	topB

3784240	Shal_0385	recG

3785083	Shal_1212	recN

3786677	Shal_2730	dinG
3786678	Shal_2731	SO1818
3786679	Shal_2732	SO1817

3786310	Shal_2367	yebG
3786309	Shal_2366	yebR

3787129	Shal_3176	dinB

3785197	Shal_1316	ogr

3785537	Shal_1634	xerC


#Shewanella piezotolerans WP3
5432980	swp_0309	recG

5437360	swp_4821	lexA
5437361	swp_4822	sulA

5435721	swp_3111	topB

5433990	swp_1366	recA

5433970	swp_1346	recN

5435818	swp_3212	dinG
5435819	swp_3214	SO1818
5435820	swp_3216	SO1817

5435444	swp_2821	yebG
5435443	swp_2820	yebR

5433811	swp_1179	dinB


#Shewanella sediminis HAW-EB3
3701259	Ssed_2172	umuD
3701258	Ssed_2171	umuC

3700335	Ssed_1300	recA

3699208	Ssed_0200	lexA
3699207	Ssed_0199	sulA

3700710	Ssed_1658	topB

3700316	Ssed_1281	recN

3700618	Ssed_1566	dinG
3700617	Ssed_1565	SO1818
3700616	Ssed_1564	SO1817

3701590	Ssed_2486	yebG
3701589	Ssed_2485	yebR

3702547	Ssed_3422	dinB

3699343	Ssed_0329	recG


#Shewanella woodyi ATCC 51908
7102956	Swoo_4592	recG

7098401	Swoo_0180	lexA
7098400	Swoo_0179	sulA

7100737	Swoo_2465	umuD
7100738	Swoo_2466	umuC

7101670	Swoo_3340	recA

7101289	Swoo_2976	topB

7101689	Swoo_3359	recN

7101399	Swoo_3086	dinG
7101400	Swoo_3087	SO1818
7101401	Swoo_3088	SO1817

7100391	Swoo_2130	yebG
7100392	Swoo_2131	yebR

7101936	Swoo_3604	dinB

7102660	Swoo_4307	xerD


