0,11.448557158514987,12.565338955232288,12.046338192968113,15.8418742493994,13.697299478905869,12.02330175702983,9.895718861012888,12.679449471770337

11.448557158514987,0,5.380670127148408,10.399835519196333,13.179449471770337,11.046338192968113,15.78787565221539,12.572890493972125,14.267294643402131

12.565338955232288,5.380670127148408,0,9.289727632909544,10.903943276465977,9.920286436967151,13.610242877016766,10.30710403685012,12.057759704144292

12.046338192968113,10.399835519196333,9.289727632909544,0,10.36664806538351,9.29843682124227,8.5612494995996,8.704772712123232,13.715005643333669

15.8418742493994,13.179449471770337,10.903943276465977,10.36664806538351,0,6.489546910976623,8.11535599791501,14.753469547164993,17.4653853654145

13.697299478905869,11.046338192968113,9.920286436967151,9.29843682124227,6.489546910976623,0,10.349831073368593,9.245530005471117,15.375

12.02330175702983,15.78787565221539,13.610242877016766,8.5612494995996,8.11535599791501,10.349831073368593,0,9.785357107135713,14.777608394786075

9.895718861012888,12.572890493972125,10.30710403685012,8.704772712123232,14.753469547164993,9.245530005471117,9.785357107135713,0,7.100781059358212

12.679449471770337,14.267294643402131,12.057759704144292,13.715005643333669,17.4653853654145,15.375,14.777608394786075,7.100781059358212,0

